^C:\USERS\ADMIN\DOCUMENTS\VISUAL STUDIO 2010\PROJECTS\BUKKIT SS\WINDOWSAPPLICATION1\F1MAIN.RESX|C:\USERS\ADMIN\DOCUMENTS\VISUAL STUDIO 2010\PROJECTS\BUKKIT SS\WINDOWSAPPLICATION1\F2ABOUT.RESX|C:\USERS\ADMIN\DOCUMENTS\VISUAL STUDIO 2010\PROJECTS\BUKKIT SS\WINDOWSAPPLICATION1\F3PREV.RESX|C:\USERS\ADMIN\DOCUMENTS\VISUAL STUDIO 2010\PROJECTS\BUKKIT SS\WINDOWSAPPLICATION1\F4OPS.RESX|C:\USERS\ADMIN\DOCUMENTS\VISUAL STUDIO 2010\PROJECTS\BUKKIT SS\WINDOWSAPPLICATION1\F5WHITELIST.RESX|C:\USERS\ADMIN\DOCUMENTS\VISUAL STUDIO 2010\PROJECTS\BUKKIT SS\WINDOWSAPPLICATION1\F6PLUGINS.RESX|C:\USERS\ADMIN\DOCUMENTS\VISUAL STUDIO 2010\PROJECTS\BUKKIT SS\WINDOWSAPPLICATION1\MY PROJECT\RESOURCES.RESX
C:\USERS\ADMIN\DOCUMENTS\VISUAL STUDIO 2010\PROJECTS\BUKKIT SS\WINDOWSAPPLICATION1\OBJ\MONO\BUKKIT_SS.F1MAIN.RESOURCES
C:\USERS\ADMIN\DOCUMENTS\VISUAL STUDIO 2010\PROJECTS\BUKKIT SS\WINDOWSAPPLICATION1\OBJ\MONO\BUKKIT_SS.F2ABOUT.RESOURCES
C:\USERS\ADMIN\DOCUMENTS\VISUAL STUDIO 2010\PROJECTS\BUKKIT SS\WINDOWSAPPLICATION1\OBJ\MONO\BUKKIT_SS.F3PREV.RESOURCES
C:\USERS\ADMIN\DOCUMENTS\VISUAL STUDIO 2010\PROJECTS\BUKKIT SS\WINDOWSAPPLICATION1\OBJ\MONO\BUKKIT_SS.F5WHITELIST.RESOURCES
C:\USERS\ADMIN\DOCUMENTS\VISUAL STUDIO 2010\PROJECTS\BUKKIT SS\WINDOWSAPPLICATION1\OBJ\MONO\BUKKIT_SS.F4OPS.RESOURCES
C:\USERS\ADMIN\DOCUMENTS\VISUAL STUDIO 2010\PROJECTS\BUKKIT SS\WINDOWSAPPLICATION1\OBJ\MONO\BUKKIT_SS.F6PLUGINS.RESOURCES
C:\USERS\ADMIN\DOCUMENTS\VISUAL STUDIO 2010\PROJECTS\BUKKIT SS\WINDOWSAPPLICATION1\OBJ\MONO\BUKKIT_SS.RESOURCES.RESOURCES
